{
    "page": {
        "column": {
            "id": true,
            "name": true,
            "created_at": true
        },
        "constraint": {
            "PRIMARY": true
        }
    },
    "page_block": {
        "column": {
            "id": true,
            "page_id": true,
            "name": true,
            "created_at": true
        },
        "constraint": {
            "PRIMARY": true,
            "PAGE_BLOCK_PAGE_ID_PAGE_ID": true
        }
    }
}